{
    // Use IntelliSense to learn about possible attributes.
    // Hover to view descriptions of existing attributes.
    // For more information, visit: https://go.microsoft.com/fwlink/?linkid=830387
    "version": "0.2.0",
    "configurations": [

        {
            "type": "python",
            "request": "launch",
            "name": "Python: Current File",
            "program": "${file}",
            "console": "integratedTerminal",
            "justMyCode":false
        },
        {
            "name": "Python: FastAPI",
            "type": "python",
            "request": "launch",
            "module": "uvicorn",
            "args": [
                "app.main:app",
                "--reload",
                "--port",
                "23456",
                "--host",
                "0.0.0.0"
            ]
        }
    ]
}
